{
    "name": "Kart",
    "maps": [
        {
            "name": "MainKart",
            "id": "6856be7f-67ff-4812-911f-6753bc5d6933",
            "actions": [
                {
                    "name": "Accelerate",
                    "type": "Button",
                    "id": "56a39296-f378-4fea-92ef-98e845366bc1",
                    "expectedControlType": "Button",
                    "processors": "",
                    "interactions": ""
                },
                {
                    "name": "Accelerate1",
                    "type": "Button",
                    "id": "688162fb-cee7-4d40-9573-5ee7425ba624",
                    "expectedControlType": "Button",
                    "processors": "",
                    "interactions": "Press(behavior=1)"
                },
                {
                    "name": "Turn",
                    "type": "Value",
                    "id": "cc7b3f2d-2348-49ac-b03f-b5abe84960d7",
                    "expectedControlType": "Vector2",
                    "processors": "",
                    "interactions": ""
                },
                {
                    "name": "Reverse",
                    "type": "Button",
                    "id": "b9625357-67a1-4f92-9957-7081afdbdfb6",
                    "expectedControlType": "Button",
                    "processors": "",
                    "interactions": ""
                },
                {
                    "name": "Reverse1",
                    "type": "Button",
                    "id": "39a0f3de-4a36-4510-aad3-b0b4e9d33972",
                    "expectedControlType": "Button",
                    "processors": "",
                    "interactions": "Press(behavior=1)"
                },
                {
                    "name": "ItemPress",
                    "type": "Button",
                    "id": "debc1f5e-d218-49d9-91e1-80d508973607",
                    "expectedControlType": "Button",
                    "processors": "",
                    "interactions": "Press(behavior=1)"
                }
            ],
            "bindings": [
                {
                    "name": "",
                    "id": "86dc2fd3-31fd-430c-8065-20c6ecec18f4",
                    "path": "<Gamepad>/buttonSouth",
                    "interactions": "",
                    "processors": "",
                    "groups": "Controller",
                    "action": "Accelerate",
                    "isComposite": false,
                    "isPartOfComposite": false
                },
                {
                    "name": "",
                    "id": "fd08c202-4683-4290-ae0c-f743dbd017dd",
                    "path": "<Gamepad>/leftStick",
                    "interactions": "",
                    "processors": "",
                    "groups": "Controller",
                    "action": "Turn",
                    "isComposite": false,
                    "isPartOfComposite": false
                },
                {
                    "name": "",
                    "id": "a39cc874-029d-4e51-afc6-5f8d584e7fb5",
                    "path": "<Gamepad>/buttonSouth",
                    "interactions": "",
                    "processors": "",
                    "groups": "Controller",
                    "action": "Accelerate1",
                    "isComposite": false,
                    "isPartOfComposite": false
                },
                {
                    "name": "",
                    "id": "41ae7621-f36e-4ea7-9438-9ee6df519058",
                    "path": "<Gamepad>/buttonEast",
                    "interactions": "",
                    "processors": "",
                    "groups": "Controller",
                    "action": "Reverse",
                    "isComposite": false,
                    "isPartOfComposite": false
                },
                {
                    "name": "",
                    "id": "86431be4-9f25-4fac-996c-299aca314467",
                    "path": "<Gamepad>/buttonEast",
                    "interactions": "",
                    "processors": "",
                    "groups": "Controller",
                    "action": "Reverse1",
                    "isComposite": false,
                    "isPartOfComposite": false
                },
                {
                    "name": "",
                    "id": "01f340a3-c4b5-426e-895a-9bd4ce0552a2",
                    "path": "<Gamepad>/rightShoulder",
                    "interactions": "",
                    "processors": "",
                    "groups": "Controller",
                    "action": "ItemPress",
                    "isComposite": false,
                    "isPartOfComposite": false
                }
            ]
        }
    ],
    "controlSchemes": [
        {
            "name": "Controller",
            "bindingGroup": "Controller",
            "devices": [
                {
                    "devicePath": "<Gamepad>",
                    "isOptional": false,
                    "isOR": false
                }
            ]
        }
    ]
}